{
    "Metadata": {
        "Papyrus": {
            "Reference": {
                "Order": 1.0,
                "Arabic Number": "1",
                "Roman Numeral": "I"
            },
            "Location": "Berlin, Staatliche Museen",
            "Number": "P.Berol. inv. 5025"
        },
        "Editions": [
            {
                "Full Title": "Papyri Graecae magicae: Die griechischen Zauberpapyri",
                "Abbreviated Title": "PGM",
                "Volumes": [
                    "1", 
                    "2"
                ],
                "Edition": "2nd",
                "Editors": [
                    "Karl Preisendanz",
                    "Albert Henrichs"
                ],
                "Publisher": "Teubner",
                "Publication Location": "Stuttgart",
                "Publication Year": [
                    "1973", 
                    "1974"
                ]
            }, {
                "Full Title": "The Greek Magical Papyri in Translation: Including the Demotic Spells",
                "Abbreviated Title": "GMPT",
                "Edition": "2nd",
                "Editors": ["Hans Dieter Betz"],
                "Publisher": "University of Chicago Press",
                "Publication Location": "Chicago",
                "Publication Year": "1992"
            }
        ]
    },
    "Spells": [
        {
            "Papyrus": "I",
            "First Line": 1,
            "Last Line": 42,
            "PGM Reference": "PGM I.1-42",
            "GMPT Title": "[Rite] for acquiring an assistant daimon",
            "Language": ["Greek"],
            "Text": {
                "1": "[<Πρᾶξις·>] παρεδρικῶς προσ̣[γίνεται δαί]μων, ὃς τὰ πάντα μηνύσει σοι ",
                "2": "ῥητῶς κα[ὶ συνόμιλος καὶ συ]ναριστῶν ἔσται σοι καὶ συγ-",
                "3": "κοιμώμενος. λαβὼν [οὖν ὁμοῦ] δύο σαυτοῦ ὄνυχας καὶ πά-",
                "4": "σας σου τὰς τρίχα[ς ἀπὸ κε]φαλῆς καὶ λαβὼν ἱέρακα κιρ-",
                "5": "καῖον ἀποθ[έ]ωσον εἰς [γάλα βο]ὸς μελαίνης συμίξας αὐ-",
                "6": "τῷ μέλι Ἀττικὸν <καὶ ἀποθεώσας ς>ύνδησον αὐτὸν ῥάκει ",
                "7": "ἀχρωτίστῳ, τίθει δ[ὲ πλησίον] αὐτοῦ τοὺς ὄνυχάς σου σὺν ταῖς ",
                "8": "θριξί, καὶ λαβὼν χα[ρτίον βασί]λειον ἐπίγραφε τὰ ὑποκείμενα ",
                "9": "ζμύρνῃ καὶ τίθει ὡσαύτως [σὺν ταῖς θ]ριξὶ καὶ τοῖς ὄνυξι καὶ ἀνάπλα-",
                "10": "σον αὐτὸν λιβάνῳ [ἀτμήτῳ κα]ὶ οἴνῳ προπαλαίῳ. ἔστιν ",
                "11": "οὖν τὰ γραφόμενα ἐν τ[ῷ πιττ]ακίῳ· ‘α εε ηηη ιιιι οοοοο υυ ",
                "12": "υυυυ ωωωω[ωωω.’ γράφε δὲ ποι]ήσας δύο κλίματα·   ",
                "13": "      α                  ωωωω[ωωω] ",
                "14": "     εε                   υυυ[υυυ] ",
                "15": "    ηηη                    οοο[οο] ",
                "16": "   ιιιι                     ιιι[ι] ",
                "17": "  οοοοο                      ηη[η] ",
                "18": " υυυυυυ                       εε ",
                "19": "ωωωωωωω                        α ",
                "20": "καὶ λαβὼν τὸ γάλα σὺν τῷ μέλιτι ἀπόπιε πρὶν ἀνατολῆς ",
                "21": "ἔνθεον ἐν τῇ σῇ καρδίᾳ. καὶ λαβὼν τὸν ἱέρακα ἀνάθου ἐν ",
                "22": "ναῷ ἀρκευθίνῳ, καὶ στεφανώσας αὐτὸν τὸν ναὸν ποίησον ",
                "23": "παράθεσιν ἐν ἀψύχοις φαγήμασιν καὶ οἶνον ἔχε προπάλαιον, ",
                "24": "καὶ πρὶν τοῦ σε ἀναπεσεῖν λέγε ἄντικρυς αὐτοῦ τοῦ πτηνοῦ ποιή-",
                "25": "σας αὐτῷ θυσίαν, ὡς ἔθος ἔχεις, καὶ λέγε τὸν προκείμενον λόγον· ",
                "26": "‘α εε ηηη ιιιι οοοοο υυ[υυυ]υ ωωωωωωω ἧκέ μοι, ἀγαθὲ γεωργέ, ",
                "27": "Ἀγαθὸς Δ[αί]μων, Ἁρπον [κνοῦ]φι βριντατην σιφρι ",
                "28": "βρισκυλμα αρουαζαρ β[αμεσεν] κριφι νιπτουμιχμουμαωφ. ",
                "29": "ἧκέ μοι, ὁ ἅγιος Ὠρίω[ν, ὁ ἀνακ]είμενος ἐν τῷ βορείῳ, ἐ-",
                "30": "πικυλινδούμενος [τὰ τοῦ Νε]ίλου ῥεύματα καὶ ἐπιμιγνύων ",
                "31": "τῇ θαλάττῃ καὶ ἀλλ[οιῶν ζω]ῇ καθώσπερ ἀνδρὸς ἐπὶ τῆς συν-",
                "32": "ουσίας τὴν σπορὰν, ἐ̣π̣[ὶ .... βάσει] ἀρραίστῳ ἱδρύσας τὸν κόσμον, ",
                "33": "ὁ πρωίας νεαρὸς καὶ ὀ[ψὲ πρες]βύτης, ὁ τὸν ὑπὸ γῆν διοδεύων ",
                "34": "πόλον καὶ πυρίπνεος <ἀνατέλλ>ων, ὁ τὰ πελάγη διεὶς μη-",
                "35": "νὶ αʹ, ὁ γονὰς [ἱεὶς ἐ]π̣ὶ τ̣[ὸ ἱερὸν ἐρ]ινεὸν τῆς Ἡλιουπόλεως διη-",
                "36": "νεκέως. [το]ῦ[το] αὐθεν[τικόν] σου ὄνομα· αρβαθ Ἀβαὼθ βακχαβρη’. ",
                "37": "πεμπόμε[νο]ς [δὲ] ἄβ[λαυτος ἴθι] ἀναποδίσας καὶ τίθει σεαυτὸν ",
                "38": "πρὸς χρῆσιν τῆς βρώς[εως κα]ὶ τοῦ δείπνου καὶ τῆς προκει-",
                "39": "μένης παραθέσεως [πελάζων] τὸ στόμα πρὸς τὸ στόμα συνόμι-",
                "40": "λος τ[ῷ θεῷ]. εἰλικρ[ίνειαν δὲ ἔχει πᾶσαν] ἡ πρᾶξις [αὕτη]. ",
                "41": "κρύβε, κρύβ[ε] τὴν πρ[ᾶξιν καὶ ἄπε]χε σαυτὸν ἐν ἡμέρ[αις ζʹ] ",
                "42": "συνουσιάσαι γυναικί."
            }
        }, {
            "Papyrus": "I",
            "First Line": 42,
            "Last Line": 195,
            "PGM Reference": "PGM I.42-195",
            "GMPT Title": "The spell of Pnouthis (for acquiring an assistant daimon)",
            "Language": ["Greek"],
            "Text": {
                "42": "[<Πνού]θεως ἱερογραμματέως πάρεδρος·> ",
                "43": ".. ‘Πνούθιος Κήρυκι σ̣ε̣[βαζομένῳ τ]ὸν θεὸν χαίρειν. εἰδὼς ",
                "44": "προσέταξά σοι [τό]νδε [τὸν πάρεδρον] πρὸς τὸ μὴ διαπίπτειν ",
                "45": "ἐπιτελ[οῦν]τα [τή]νδε [τὴν πρᾶξ]ιν. παρελόμενος τὰ πάν-",
                "46": "τα καταλει[πόμενα ἡμῖν ἐν] βίβλοις μυρίαις συντάγμα-",
                "47": "τα, [ἓ]ν πάν[των] ληα........ <ὑπηρετ>οῦντά σοι τόνδε τὸν πάρε-",
                "48": "δρον ἐπέδει[ξ]α ασο[... πάρεδρον] ἅγιον τόνδε λαμβάνειν ",
                "49": "ὑμᾶς καὶ μόνον αι............τος, ὦ φίλε ἀερίων ",
                "50": "πνευμάτων χωρουμ[ένων] ... με λόγοις θεολογουμένοις ",
                "51": "πείσαντες εσομ[......... νῦ]ν δὲ ἀπέπεμψα τήνδε τὴν   ",
                "52": "βίβλον, ἵν' ἐκμάθῃς. [ἔχει γὰρ δύναμι]ν Πνούθεως λόγος πεί-",
                "53": "θειν θεοὺς καὶ πάσας τὰ[ς θεάς. συγγράψω] δέ σοι ἐντεῦθεν περὶ τῆς ",
                "54": "παρέδρου λ[ήψεως. ἔστι δὲ ἡ τοῦ παρ]έδρου παράδοσις· προ-",
                "55": "αγνεύσας καὶ [ἀπεχόμενος ἐμψύ]χου καὶ πάσης ἀκαθαρ-",
                "56": "σίας καὶ ἐν οἵᾳ βούλει [νυκτὶ ἀνα]βὰς ἐπὶ δώματος ὑψηλοῦ, ",
                "57": "ἐνδεδυμένος καθαρῶς [....... λέγ]ε τὴν πρώτην σύστασιν ",
                "58": "ἀπογιν(ομένης) τῆς ἡλίου ἑλείας ........ [.... ἔ]χων τελαμῶνα [ὁλο]-",
                "59": "μέλανα Ἰσιακὸν ἐπὶ το[ῖς ὀφθαλμοῖ]ς καὶ τῇ μὲν δεξιᾷ χει-",
                "60": "ρὶ κάτεχε ἱέρακος κεφα[λὴν καὶ .... ἀ]νατέλλοντος τοῦ ἡλίου χαι-",
                "61": "ρέτιζε κατασείων τὴν κεφ[αλὴν καὶ ... δι]ώ̣κων τόνδε τὸν ",
                "62": "ἱερὸν λόγον, ἐπιθύων λίβανον ἄ[τμητον] καὶ ῥόδινον ",
                "63": "ἐπισπένδων, ἐπιθύσας[ ἐπὶ γηί]νου θυμιατηρίου ἐπ' ἀνθρά-",
                "64": "κων ἀπὸ ἡλιοτροπίου β[οτάνης. ἔ]σται δέ σοι διώκοντι τὸν λόγον ",
                "65": "σημεῖον τόδε· ἱέραξ κατ[απτὰς σοῦ] ἄντικρυς σταθήσεται ",
                "66": "καὶ πτερὰ τινάξας ἐν μές[ῳ, καθεὶς] εὐμήκη λίθον, εὐθὺς ἀνα-",
                "67": "πτήσεται εἰς οὐρανὸν β[αίνων. σὺ] δὲ βάσταξον τοῦτον τὸν λίθον ",
                "68": "καὶ λιθουργήσας τάχος [γλῦφε ὕστ]ερον· γλυφέντα δὲ διατρυ[π]ήσας ",
                "69": "καὶ διείρας σπάρτῳ περὶ τ[ὸν τρά]χηλόν σου εἴρησον. ὀψίας δὲ ",
                "70": "ἀνελθὼν εἰς τὸ δωμάτιόν ς[ου πάλι]ν καὶ στὰς πρὸς αὐγὴν τῆς ",
                "71": "θεοῦ ἄντικρυς λέγε τὸν ὑμ[νικὸν λόγον] τόνδε ἐπιθύων πάλιν τρω-",
                "72": "γλῖτιν ζμύρναν τῷ αὐτῷ σχήμ[ατι. πῦρ] δὲ ἀνάψας ἔχε μυρσίνης ",
                "73": "κλάδον [.ι̣.....]ο̣ν̣ σείω̣[ν καὶ χαιρ]έτιζε τὴν θεόν. ἔσται δέ σοι ",
                "74": "σημεῖον ἐν τάχει τοιοῦ[το· ἀστὴρ αἴθω]ν κατελθὼν στήσεται εἰς μέσον ",
                "75": "τοῦ δώματος καὶ κατ' ὄμ[μα κατα]χυ[θ]ὲν τὸ ἄστρον, ἀθρήσεις, ὃν ",
                "76": "ἐκάλεσας ἄγγελον πεμφθ[έντα ς]οί, θεῶν δὲ βουλὰς συντόμως ",
                "77": "γνώσῃ. σὺ δὲ μὴ δειλοῦ· [πρός]ιθι τῷ θεῷ, καὶ χεῖρα αὐτοῦ ",
                "78": "δεξιὰν λαβὼν κατ[φί]λ̣ησον, καὶ λέγε ταῦτα πρὸς τὸν ἄγγελον· ",
                "79": "λαλήσει γάρ σοι συν[τόμ]ως, πρὸς ὃ ἐὰν βούλῃ. σὺ δὲ αὐτὸν ",
                "80": "ἐξόρκιζε τῷδε [τῷ ὅρκ]ῳ, ὅπως ἀκίνητός σου τυγχάνων ",
                "81": "μείνῃ καὶ μὴ προσι[γήσῃ μη]δὲ παρακούσῃ ὅλως. ἐπὰν δέ ",
                "82": "σοι τοῦτον <τὸν> ὅρκον ἀ[ποδ]ῷ ἀσφαλῶς, χειροκρατήσας τὸν ",
                "83": "θεὸν καταπήδα, κ̣[αὶ εἰ]σ̣ στενὸν τόπον ἐνεγκών, ὅπου ",
                "84": "κατοικεῖς, καθ[ίστη. π]ρῶτον δὲ τὸν οἶκον στρώσας, καθὼς ",
                "85": "πρέπει, καὶ ἑτοι[μάσας] παντοῖα φαγήματα οἶνόν τε Μεν-",
                "86": "δήσιον, προανά[φερε εἰ]ς τὸν θεόν, ὑπηρετοῦντος παιδὸς ",
                "87": "ἀφθόρου καὶ σιγὴ[ν ἔ]χοντος, ἄχρις ἂν ἀπίῃ ὁ̣ [ἄγγ]ελος. ",
                "88": "σὺ δὲ λόγο(υ)ς πρόπεμ̣[πε] τῷ θεῷ· ‘ἕξω φίλον σε πάρεδρον, ",
                "89": "εὐεργέτην θεὸν [ὑπ]ηρετοῦντά μοι, ὡς ἂν εἴπω, τάχος, τῇ σῇ ",
                "90": "δυνάμει ἤδη ἔ[γγ]αιος, ναὶ ναί, φαῖνέ μοι, θεέ’. καὶ αὐ-  ",
                "91": "τὸς σὺ λάλησον, ἀνακ[εί]μενος, πρὸς ἃ φράζει, συντόμως. ",
                "92": "πειρῶ δὲ θεοῦ τὸν ὁρκισμὸν αὐτόν, πρὸς <ὃ> θέλεις. ἐπὰν δὲ ὧραι γʹ ",
                "93": "γένωνται, καὶ εὐθὺς ἀναπηδήσει ὁ θεός. κέλευε δὲ τῷ [π]αιδὶ <κατὰ> ",
                "94": "τὰς θύρας τρέχειν. λέγε δὲ· ‘χώρει, κύριε, θεὲ μάκαρ, ",
                "95": "ὅπου διηνεκῶς σὺ εἶς, ὡς βούλει’, καὶ ἀφανής ἐστιν ὁ θεός. ",
                "96": " Αὕτη ἡ ἱερὰ λῆψις τοῦ παρέδρου. γινώσκεται, ὅτι οὗτός ἐστιν ",
                "97": "ὁ θεός· πνεῦμά ἐστιν ἀέριον, ὃ εἶδες. ἐὰν ἐπιτάξῃς, παραυτὰ ",
                "98": "τὸ ἔργον ἐπιτελεῖ· ὀνειροπομπεῖ, ἄγει γυναῖκας, ἄνδρας δίχα ",
                "99": "οὐσίας, ἀναιρεῖ, καταστ[ρ]έφει, ἀναρίπτει ἀνέμους ἐκ γῆς, βαστάζει ",
                "100": "χρυσόν, ἄργυρον, χαλκόν, καὶ δίδωσί σοι, ὅταν χρεία γένηται, ",
                "101": "λύει δὲ ἐκ δεσμῶν [ἀ]λύσεσι φρουρούμενον, θύρας ἀνοίγει, ",
                "102": "ἀμαυροῖ, ἵνα μηδεὶς [κ]αθόλου σε θεωρήσῃ, πυρφορεῖ, ὕδωρ ",
                "103": "φέρει, οἶνον, ἄρτον καὶ [ὃ] ἂν ἐθέλῃς ἐκ τῶν ἐδεσμάτων, ἔλαι-",
                "104": "ον, ὄξος, χωρὶς ἰχθύων μ[ό]νων, λαχάνων δὲ πλῆθος, ὃ θέλεις, ",
                "105": "ἄξει, κρέας δὲ χοίρειον – [τ]οῦτο ὅλως μὴ λέξῃς ποτὲ ἐνεγ-",
                "106": "κεῖν. καὶ ὅτε βούλει δεῖ[πν]ον ποιῆσαι, λέγε· πᾶν χώρημα ",
                "107": "εὐπρεπὲς θεωρήσας [κέ]λευε τούτῳ στρῶσαι ταχέως ",
                "108": "καὶ συντόμως· εὐθὺς [περι]θ̣ήσει χρυσόροφα δώματα, τοίχους ",
                "109": "τούτοις μαρμαρωθέ̣[ν]τ̣ας ὄψῃ – καὶ ταῦτα ἡγεῖ τὰ μὲν ἀληθῆ, ",
                "110": "τὰ δὲ βλέπεσθαι μόνο[ν] – οἶνον δὲ πολυτελῆ, καθὼς πρέπει ",
                "111": "ἐξαρτίσαι τὸ δεῖπνον λ[αμ]πρῶς, συντόμως δαίμονας οἴ-",
                "112": "σει καὶ τοὺς ὑπηρετοῦν[τ]άς σοι ζωστοὺς κοσμήσει. ταῦτα ",
                "113": "[ς]υντόμως ποιεῖ. κα[ὶ ὁπόταν αὐτὸν] κελεύσῃς διακον[ῆσαι], ",
                "114": "ποιήσει, καὶ ὄψῃ προ[τερή]σαντα ἄλλοις· ἵστησι πλοῖα καὶ πά[λιν] ",
                "115": "ἀπολύει, ἵστησι πονη[ρὰ δαιμόν]ι̣α̣ πλεῖστα, θῆρας δὲ παύει καὶ ὀ-",
                "116": "δόντας ῥήξει ἑρπετ[ῶν ἀν]ημέρων συντόμως, κύνας δὲ ",
                "117": "κοιμίζει καὶ ἀφώνο[υς ἵς]τησι, μεταμορφοῖ δὲ̣ εἰς ἣν ἐὰν ",
                "118": "βούλῃ μορφὴν θη[ρίου] πετηνοῦ, ἐνύδρου, τετραπόδου, ",
                "119": "ἑρπετοῦ. βαστάξει ς[ε εἰς] ἀέρα καὶ πάλιν ῥίψει σε εἰς κλύδων-",
                "120": "α ποντίων ποταμ[ῶν καὶ] εἰς ῥ<ύ>ακας θαλασσίων, πήξει δὲ ποτα-",
                "121": "μοὺς καὶ θάλασσα[ν συντ]όμως καὶ, ὅπως ἐνδιατρέχῃς ",
                "122": "σταδίως, ὡς βούλει. μά[λιστα] δὲ καθέξει σοῦ θελήσαντός ",
                "123": "ποτε τὸν ἀφρὸν ἁλί[δρομ]ον, καὶ ὅταν θέλῃς ἄστρα κατενεγ-",
                "124": "κεῖν, ὁπόταν τε θέλῃς [τὰ θερ]μὰ ψυχρὰ ποιῆσαι καὶ τὰ ψυχρὰ ",
                "125": "θερμά, λύχνους ἀνά[ψει κ]αὶ κατασβέσει πάλιν, τείχη δὲ ",
                "126": "σείσει καὶ πυρίφλογα [ποιή]σει, δουλεύσει σοι ἱκανῶς ",
                "127": "εἰς [ἃ] ἂν ἐπινοήσῃς, ὦ μα[κάρι]ε μύστα τῆς ἱερᾶς μαγείας, καὶ ἐπι-",
                "128": "τελέσει σοι ὁ κράτιστος πάρεδρος οὗτος, ὁ καὶ μόνος κύριος ",
                "129": "τοῦ ἀέρος, καὶ συνφων[ή]σουσι πάντα οἱ θεοί· δίχα γὰρ τούτου ",
                "130": "οὐδέν ἐστιν. μηδενὶ [ἄλλῳ με]ταδῷς, ἀλλὰ κρύβε, πρὸς Ἡλίου,   ",
                "131": "ἀξιωθεὶς ὑπὸ τοῦ κυρί[ου θεοῦ], τὸ μέγα τοῦτο μυστήριον. ἔστιν ",
                "132": "δὲ ὁ λόγος ὁ λεγόμενος ἑ[πτάκις ἑπ]τὰ πρὸς ἥλιον ἐξορκισμὸς ",
                "133": "τοῦ παρέδρου· ‘ωρι πι... [Ἀ]μοῦν τε αινθυ̣φ πιχ̣αρουρ-",
                "134": "ραιαλ καρφιουθ υμου ρ̣ο̣θ̣ι̣ρ̣βαν οχαναυ μουν̣α̣ιχαναπτα-",
                "135": "ζω· ζων ταζωταζω· πταζω μαυϊας σουωρι σουω ωους ",
                "136": "σαραπτουμι σαραχθι α. ριχαμχω βιραθαυ ωφαυ φαυω ",
                "137": "δαυα· αυαντω ζουζω· αρρουζω ζωτουαρ θωμναωρι ",
                "138": "αυωι πταυχαρηβι αωυοσωβιαυ πταβαϊν ααααααα ",
                "139": "αεηιουωυωοιηεα χαχαχ χαχαχ χαρχαραχαχ Ἀμοῦν ω· ηϊ ",
                "140": "ϊαεωβαφρενεμουνοθιλαρικριφιαευεαϊφιρκιραλιθον-",
                "141": "υομενερφαβω[ε]αϊ χαθαχ φνεσχηρ φιχρο φνυρω φωχωχοχ ",
                "142": "ϊαρβαθα γραμμ̣η φιβαωχνημεω.’ οὗτός ἐστιν ὁ λόγος ὁ λεγό-",
                "143": "μενος πρὸς ἥλιον ἑπτάκις ἑπτά. ἔστιν δὲ ὁ γλυφόμενος εἰς τὸν ",
                "144": "λίθον Ἡλίωρος ἀνδρ[ιὰς] λεοντοπρόσωπος, τῇ μὲν ἀριστερᾷ ",
                "145": "χειρὶ κρατῶν πόλον καὶ μάστιγα, κύκλῳ δὲ αὐτοῦ δράκοντα ",
                "146": "οὐροβόρον, ὑπὸ δὲ τὸ ἔδαφος τοῦ λίθου τὸ ὄνομα τοῦτο (κρύβε)· ‘αχα ",
                "147": "αχαχα χαχ χαρχαρα χαχ.’ καὶ διειρήσας σπάρτῳ Ἀνου-",
                "148": "βιακῷ φόρει περὶ τὸν τράχηλον. λόγος Σελήνῃ· ‘ϊνουθω ",
                "149": "πτουαυμι· ανχαριχ· χαραπτουμι· ανοχα αβιθρου ",
                "150": "αχαραβαυβαυ βαραθιαν ατεβ δουανανου απτυρ πανορ ",
                "151": "παυραχ· σουμι φορβα· φ[ο̣]ριφορβαραβαυ· βωηθ· αζα· φορ· ριμ ",
                "152": "μιρφαρ· ζαυρα· πταυζου· χωθαρπαραχθιζου· ζαιθ· ατιαυ ",
                "153": "ϊαβαυ καταντουμι βαθαρα χθιβι ανοχ.’ ταῦτα εἰπὼν ",
                "154": "ὄψει τινὰ ἀστέρα ἐκ τοῦ <οὐρανοῦ> κατ' ὀλίγον ἀναλυόμενον καὶ θεο-",
                "155": "ποι[ο]ύμ[ε]νον. σὺ δὲ προσιὼν καὶ δεξάμενος τῆς χειρὸς ",
                "156": "καταφ[ιλ]ῶν λέγε τὸν αὐτὸν λόγον· ‘ωπταυμι ναφθαυβι ",
                "157": "μαιουθ[μ̣]ου μητροβαλ· ραχηπτουμι αμμωχαρι ",
                "158": "αυθει· α. ταμαρα· χιωβιταμ· τριβωμις· αραχο ισαρι ",
                "159": "ραχι· Ἰα[κο]υβι ταυραβερωμι ανταβι ταυβι.’ ταῦ[τά] σοι εἰ-",
                "160": "πόντι [ἀπ]ο̣κριθήσεται, σὺ δὲ αὐτῷ λέγε· ‘τί ἐστιν τὸ ἔνθεόν ",
                "161": "σου ὄν[ομ]α; μήνυσόν μοι ἀφθόνως, ἵνα ἐπικαλέσω-",
                "162": "μαι α[ὐτό’. ἔς]τιν δὲ γραμμάτων ιεʹ· σουεσολυρ φθη μωθ. ",
                "163": "ἔστιν δὲ καὶ τὰ ἑξῆς λεγόμενα· ‘δεῦρό μοι, βασιλεῦ, <καλῶ σε> θεὸν θεῶν, ",
                "164": "ἰσχυρὸν, ἀπέραντον, ἀμίαντον, ἀδιήγητον, Αἰῶνα κα-",
                "165": "τεστηριγ[μ]ένον· ἀκίνητός μου γίνου ἀπὸ τῆς σήμερον ",
                "166": "ἡμέρας ἐπὶ τὸν ἅπαντα χρόνον τῆς ζωῆς μου’. ἔπειτα ",
                "167": "ἐρώτα αὐτὸν κατὰ τῶν αὐτῶν ὅρκων. ἐὰν τὸ ὄνομά σοι εἴπῃ, σὺ δὲ ",
                "168": "τῆς χειρὸς αὐτοῦ λαβὼν κάτελθε καὶ κατάκλινον αὐτόν, ὡς ",
                "169": "προεῖπον, παρατιθῶν αὐτῷ, ἐξ ὧν μεταλαμβάνεις βρω-",
                "170": "τῶν καὶ ποτῶν. ἐπὰν δὲ ἀπολύσῃς αὐτὸν, μετὰ τὸ ἀποστῆ-",
                "171": "ναι ἐπίθυε αὐτῷ τὰ προκείμενα καὶ σπένδε οἶνον, καὶ οὕτως ",
                "172": "τῷ κραταιῷ ἀγγέλῳ φίλος ἔσει· ἀποδημοῦντί σοι συν-",
                "173": "αποδημήσει, πενομένῳ χρήματα δώσει, ἐρεῖ σοι τὰ μέλλοντα ",
                "174": "γενέσθαι καὶ πότε καὶ ποίῳ χρόνῳ, νυκτὸς ἢ ἡμέρας. ἐὰν ",
                "175": "δέ τί<ς> σε ἐρωτήσῃ· ‘τί κατὰ ψυχὴν ἔχω’; ἢ· ‘τί μοι ἐγένετο ἤγε μέλ[λ-]",
                "176": "ει γενέσθαι;’ ἐπερώτα τὸν ἄγγελον, καὶ ἐρεῖ σοι σιωπῇ· σὺ δὲ ",
                "177": "ὡς ἀπὸ σεαυτοῦ λέγε τῷ ἐπερωτῶντί σε. τελευτήσαντός σου ",
                "178": "τὸ σῶμα [περις]τελεῖ, ὡς πρέπον θεῷ, σοῦ δὲ τὸ πνεῦμα βαστά-",
                "179": "ξας εἰς ἀέρ[α ἄ]ξει σὺν αὑτῷ. εἰς γὰρ Ἅιδην οὐ χ[ω]ρήσει ἀέριον ",
                "180": "πνεῦμα συσταθὲν κραταιῷ παρέδρῳ· τούτῳ γὰρ πάντα ",
                "181": "ὑπόκειτ[αι]. ὅταν δὲ θέλῃς τι πρᾶξαι, εἰς ἀέρα λέγε τὸ ὄνομα ",
                "182": "μόνον κα[ὶ· ‘ἐλθέ’, κ]αὶ ὄψῃ αὐτόν, καὶ ἐγγύς σου ἑστῶτα, καὶ λέγε   ",
                "183": "αὐτῷ· ‘ποίη[σον] τοῦτο τὸ ἔργον,’ καὶ ποιεῖ παραυτὰ καὶ ποιήσας ἐρεῖ ",
                "184": "σοι· ‘τί ἄλλο βούλει; σπεύδω γὰρ εἰς οὐρανόν.’ ἐὰν δὲ μὴ ἔχῃς ",
                "185": "παραυτὰ ἐπιτάξαι, λέγε αὐτῷ· ‘πορεύου, κύριε’, καὶ ἀπελεύ-",
                "186": "σεται. οὕτως οὖν ὁ θεὸς ὑπὸ σοῦ μόνου θεωρηθήσεται, οὐδὲ ",
                "187": "φωνήν ποτε αὐτοῦ οὐδεὶς ἀκούσει λαλοῦντος, εἰ μὴ σὺ αὐ-",
                "188": "τὸς μόν[ο]ς. ἐρεῖ δέ σοι περὶ κατακλίσεως ἀνθρώπου, εἰ ζήσε-",
                "189": "ται ἢ τελ[ευτής]ει, καὶ ποίᾳ ἡμέρᾳ καὶ ποίᾳ ὥρᾳ νυκτός. ",
                "190": "δώσει δέ [σοι καὶ] ἀγρίας βοτάνας καὶ πῶς θερ[α]πεύσεις, καὶ ὡς ",
                "191": "θεὸς προ̣[σκ]υ̣ν̣ηθήσει ἔχων τὸν θεὸν φί[λο]ν. ταῦτα εὖ ἀνύσει ",
                "192": "ὁ κραται[ὸς] πάρεδρος. ταῦτα οὖν μηδενὶ παραδίδου, εἰ μὴ ",
                "193": "μόνῳ [σο]υ ἰσχινῷ υἱῷ σου ἀξιοῦντι τὰ [παρ'] ἡμῶν ῥηθέν-",
                "194": "τα ἐνεργ[ή]ματα. διευτύχει.’ τὸ δὲ λεγόμενον πρὸς ἥλιον οὐδὲν ",
                "195": "ζητεῖ εἰ μ[ὴ] ϊαεωβαφρενεμουν (λόγος) καὶ ια[ρ]βαθα (λόγος)."
            }
        }, {
            "Papyrus": "I",
            "First Line": 195,
            "Last Line": 222,
            "PGM Reference": "PGM I.195-222",
            "GMPT Title": "Prayer of deliverance",
            "Language": ["Greek"],
            "Text": {
                "195": "<Ἔστιν ",
                "196": "οὖν> τοῦ [π]ρωτοφυοῦς θεοῦ καὶ πρωτογε[ν]οῦς ",
                "197": "<ῥυστική·> ",
                "198": "’ἐπικαλο[ῦ]μαί σε, κύριε, κλῦθί μου, ὁ ἅγιος θεός, [ὁ] ἐν ἁγίοις ἀνα-",
                "199": "παυόμενος, ᾧ αἱ Δόξαι παρεστήκασι διηνεκῶ<ς>· σὲ ἐπικα-",
                "200": "λοῦμαι, [προπ]άτωρ, καὶ δέομαί σου, αἰωναῖε, αἰωνακ<τ>ινοκρά-",
                "201": "τωρ, αἰωνοπολοκράτωρ, ἐπὶ τοῦ ἑπταμερ[ί]ου σταθείς χαω· ",
                "202": "χαω·χα·ουφ· χθεθωνϊμεεθηχρινϊ[α̣] μερουμ ",
                "203": "ϊ Ἀλδα ζαω βλαθαμμ̣α̣χωθ φριξα ηκ̣ε̣[..]φυηϊδρυ-",
                "204": "μηω φερφ̣ριθω ϊαχθω ψυχεω φιριθμεω [ρ]ωσερωθ ",
                "205": "θαμαστρα φατιρι ταωχ ϊαλθεμεαχε· ὁ τὸ ῥίζωμα δια-",
                "206": "κατέχω[ν, ὁ] τὸ ἰσχυρὸν ὄνομα ἔχων τὸ καθηγιασμένον ",
                "207": "[ὑ]πὸ πάντων ἀγγέλων· ἐπάκουσόν μου, ὁ κτίσας δεκα-",
                "208": "νοὺς κ[ρα]ταιοὺς καὶ ἀρχαγγέλους, ᾧ παρεστήκασιν μυριά-",
                "209": "δες ἀγγ[έλ]ων ἄφατοι· κατ' οὐρανὸν ἀνυψώθης, καὶ κύρι-",
                "210": "ος ἐπεμ<αρ>τύρησεν [τ]ῇ σοφίᾳ σου καὶ κατηυλόγησέν ",
                "211": "σου <τὴν> δύν[α]μιν καὶ εἶπέν σε σθένειν καθ' ὁμοιότητα αὐτοῦ, ",
                "212": "ὅσον κα[ὶ α]ὐτὸ[ς σθένει. ἐπικαλοῦμαί σε, κύριε τῶν πάντων, ἐν ὥρᾳ ἀνάγ-]",
                "213": "κης, ἐπά[κ]ουσόν μο[υ], ὅτι [θλ]ί[βε]ταί μου ἡ ψυχὴ καὶ ἀποροῦ-",
                "214": "μαι ἁ[πάντων] ἄβου[λος· διὸ ἐλθέ] μοι, ὁ κυριεύων πάντων ",
                "215": "ἀγγέλων, ὑπεράσπισόν μου πρὸς πᾶσαν ὑπεροχὴν ἐξου-",
                "216": "σίας δαίμονος ἀε[ρί]ου [καὶ εἱ]μαρμένης. ναί, κύριε, ὅτι ἐπικα-",
                "217": "λοῦμαί σου τὸ κρυ[π]τὸν ὄνομα τὸ διῆκον ἀπὸ τοῦ στερεώματος ",
                "218": "ἐπὶ τὴν γῆν· αθηζοφωιμ ζαδηαγηωβηφιαθεαα Ἀμ-",
                "219": "βραμι Ἀβρααμ θαλχιλθοε ελκωθωωηη αχθωνων ",
                "220": "σα Ἰσακ χωηϊουρθασιω Ἰωσϊα ϊχημεωωωω ",
                "221": "αωαεϊ, ἀνάσωσόν με ἐν ὥρᾳ ἀνάγκης’. λέγε ἡλίῳ ἢ ὅπου ",
                "222": "ἐὰν κατα[λ]ηφθῇς."
            }
        }, {
            "Papyrus": "I",
            "First Line": 222,
            "Last Line": 231,
            "PGM Reference": "PGM I.222-231",
            "GMPT Title": "Invisibility spell",
            "Language": ["Greek"],
            "Text": {
                "222": "<Ἀμαύρωσις ἀναγκαία·> ",
                "223": "λαβὼν στέαρ ἢ ὀφθαλμὸν νυκτίβαυ καὶ κύλισμα καν-  ",
                "224": "θάρου καὶ <ὀμ>φακνίνου μύρου λειοτριβήσας πάντα χρῖε ὅλον ",
                "225": "τὸ σωμά[τ]ιόν σου, καὶ πρὸς ἥλιον λέγε· ‘ἐξορκίζω σε τὸ μέγα ",
                "226": "ὄνομα βορκη φοιουρ ϊω ζιζια̣ α̣πα̣ρξεουχ θυθ̣η λαιλαμ ",
                "227": "αααααα [ιι]ιιι ωωωω ϊεω ϊεω ϊεω ϊεω ϊεω ϊεω ϊεω ",
                "228": "ναυναξ αιαι αεω αεω ηαω’ καὶ ὑγρὸν ποίει καὶ ἐπίλε-",
                "229": "γε· ‘ἀθεώρητόν με ποίησον, κύριε Ἥλιε, αεω ωαη εϊη ηαω, ",
                "230": "ἀπέναντι παντὸς ἀνθρώπου ἄχρι δυσμῶν ἡλίου ϊω ϊωω ",
                "231": "φριξ ριζω εωα.’ "
            }
        }, {
            "Papyrus": "I",
            "First Line": 232,
            "Last Line": 247,
            "PGM Reference": "PGM I.232-247",
            "GMPT Title": "Memory spell",
            "Language": ["Greek"],
            "Text": {
                "232": " <Μνημονική·> ",
                "233": "λαβὼν χάρτην ἱερατικὸν γράψον τὰ προκείμενα ὀνόματα ζμυρνομέλανι Ἑρ-",
                "234": "μαϊκῷ καὶ γράψας, ὡς πρόκειται, ἀπόκλυσον ἐς ὕδωρ πηγαῖ-",
                "235": "ον ἀπὸ ζʹ πηγῶν καὶ πίε αὐτὸ ἐπὶ ἡμέρας ζʹ νήστης ἐξ ἀ-",
                "236": "νατολῆς οὔσης τῆς σελήνης. πῖνε δὲ τὸ ἀρκοῦν. ἔστιν δὲ τὰ γρα-",
                "237": "φόμενα εἰς τὸ πιττάκιον· ‘καμβρη χαμβρη· σιξιωφι Ἁρπον ",
                "238": "Χνουφι βριντατηνωφριβρισκυλμααρουαζαρβαμεσεν ",
                "239": "κριφι νιπτουμι χμουμαωφ Ἀκτιωφι αρτωσι βιβιου ",
                "240": "βιβιου σφη σφη νουσι νουσι σιεγω σιεγω νουχα νουχα ",
                "241": "λινουχα λινουχα χυχβα χυχβα καξιω χυχβα δητοφωθ ",
                "242": "ιι αα οο υυ ηη εε ωω.’ ταῦτα ποιήσας ἀπόκλυσον καὶ ",
                "243": "πίε, ὡς πρόκειται. ἔστιν δὲ καὶ τοῦ μελανίου ἡ σκευή· τρωγλῖ-",
                "244": "τις ζμύρνα δραχμαὶ δʹ, ἰσχάδας Καρικὰς γʹ, φοινίκων Νικολάων ὀστέα ζʹ, ",
                "245": "στροβίλια ἄβροχα ζʹ, ἀρτεμισίας μονοκλώνου καρδίας ζʹ, ",
                "246": "ἴβεως ‘Ἑρμαϊκῆς πτερὰ ζʹ, ὕδωρ πηγαῖον. ταῦτα καύσας ποί-",
                "247": "ει καὶ γράφε."
            }
        }, {
            "Papyrus": "I",
            "First Line": 247,
            "Last Line": 262,
            "PGM Reference": "PGM I.247-262",
            "GMPT Title": "Spell for invisibility",
            "Language": [
                "Greek", 
                "Coptic"
            ],
            "Text": {
                "247": "<Ἀμαύρωσι<ς> δοκίμη.> μέγα ἔργον· ",
                "248": "λαβὼν πιθήκου ὀφθαλμὸν ἢ νέκυος βιοθανάτου καὶ βοτάνην ἀγλαοφωτίδος (τὸ ῥόδον λέγει) ταῦτα τρί-",
                "249": "ψας σὺν ἐλαίῳ σουσίνῳ, τρί-",
                "250": "βων δὲ αὐτὰ ἐκ τῶν δεξιῶν εἰς τὰ εὐώνυμα λέγε τὸν λό-",
                "251": "γον, ὡς ὑπόκειται· ⲁⲛⲟⲕ ⲁⲛⲟⲩⲡ ⲁⲛⲟⲕ ⲟⲩⲥⲓⲣⲫⲣⲏ ⲁⲛⲟⲕ ⲱ-",
                "252": "ⲥⲱⲧ ⲥⲱⲣⲱⲛ ⲟⲩⲓⲉⲣ ⲁⲛⲟⲕ ⲡⲉ ⲟⲩⲥⲓⲣⲉ ⲡⲉⲛⲧⲁ ⲥⲏⲧ ⲧⲁⲕⲟ",
                "253": "ἀνάστηθι, δαίμων καταχθόνιε ιω Ἐρβηθ ιω Φορβηθ ιω ",
                "254": "Πακερβηθ ιω Ἀπομψ, ὃ ἐὰν ἐπιτάξω ὑμῖν ἐγὼ ὁ δεῖνα, ὅπως ",
                "255": "ἐπήκοοί μοι γένησθε.’ ἐὰν δὲ θελήσῃς ἄφαντος γενέ-",
                "256": "σθαι, χρῖσόν σου τὸ μέτωπον μόνον ἐκ τοῦ συνθέματος, ",
                "257": "καὶ ἄφαντος ἔσῃ, ἐφ' ὅσον χρόνον θέλεις. ἐὰν δὲ θελή-",
                "258": "σῃς ἐμφαίνεσθαι, ἀπὸ δύσεως ἐρχόμενος εἰς ἀνατολὴν ",
                "259": "λέγε τὸ ὄνομα τοῦτο, καὶ ἔσει δηλωτικὸς καὶ ἔποπτος πᾶσιν ",
                "260": "ἀνθρώποις. ἔστιν δὲ τὸ ὄνομα· ‘Μαρμαριαωθ μαρμα-",
                "261": "ριφεγγη, ποιήσατέ με, τὸν δεῖνα, ἔποπτον πᾶσιν ἀνθρώποις ",
                "262": "ἐν τῇ σήμερον ἡμέρᾳ, ἤδη, ἤδη, ταχύ, ταχύ.’ ἔχε<ι> λίαν καλῶς. "
            }
        }, {
            "Papyrus": "I",
            "First Line": 263,
            "Last Line": 347,
            "PGM Reference": "PGM I.263-347",
            "GMPT Title": "Apollonian invocation",
            "Language": ["Greek"],
            "Text": {
                "263": " <Ἀπολλωνιακὴ ἐπίκλησις·> ",
                "264": "λαβὼν κλῶνα δάφν[ης] ἑπτάφυλλον ἔχε ἐν τῇ δεξ[ιᾷ] χειρὶ ",
                "265": "καλῶν τοὺς οὐρανίους θεοὺς καὶ χθονίους δαίμον[ας]. γρά-",
                "266": "ψον εἰς τὸν κλῶνα τῆς δάφνης τοὺς ζʹ ῥυστικοὺς χ[α]ρα-",
                "267": "κτῆρας. εἰσὶν οἱ χαρακτῆρες οἵδε· ",
                "268": " [sigilla 8] ",
                "269": "τὸν μὲν πρῶτον χαρακτῆρα εἰς τὸ πρῶτον φύλλον, τὸν [δε]ύτερον ",
                "270": "πάλιν οὕτως εἰς τὸ δεύτερον, ἄχρι λήξεως τῶν ζʹ φύλλων καὶ ",
                "271": "τῶν ζʹ χαρακτήρων. βλέπε δέ, μὴ ἀπολέσῃς φύλλον [καὶ] σεαυ-",
                "272": "τὸν βλάψῃς· τοῦτο γὰρ μέγιστον σώματος φυλακτικόν, ἐν ᾧ   ",
                "273": "πάντες ὑποτάσσονται καὶ θάλασσα καὶ πέτραι φρίσσουσι ",
                "274": "καὶ δαίμονες φυλ<άσσονται χαρ>ακτήρων τὴν θείαν ἐνέργειαν, ἥνπερ ",
                "275": "μέλλεις ἔχειν. ἔστιν γὰρ φυλακτήριον μέγιστον τῆς πρά-",
                "276": "ξεως, ἵνα μηδὲν πτοηθῇς. ἔστιν δὲ ἡ πρᾶξις· ",
                "277": "λαβὼν λύχνον ἀμίλτωτον σκεύασον διὰ βυσσίνου ῥάκους ",
                "278": "καὶ ῥοδίνου ἐλαίου ἢ ναρδίνου καὶ στολίσας σεαυτὸν προφη-",
                "279": "τικῷ σχήματι ἔχε ἐβεννίνην ῥάβδον ἐν τῇ λαιᾷ χειρὶ καὶ ",
                "280": "τὸ φυλακτήριον ἐν τῇ δεξιᾷ, τουτέστιν τὸν κλῶνα τῆς δά-",
                "281": "φνης, ἔχε δὲ ἐν ἑτοίμῳ λύκου κεφαλήν, ὅπως ἂν ἐπιθῇς ",
                "282": "τὸν λύχνον ἐπὶ τῆς κεφαλῆς τοῦ λύκου, καὶ βωμὸν ὠμὸν ",
                "283": "στησάμενος ἐγγὺς τῆς κεφαλῆς καὶ τοῦ λύχνου, ἵνα ἐπιθύ-",
                "284": "σῃς τῷ θεῷ· καὶ εὐθέως εἰσέρχεται τὸ θεῖον πνεῦμα. ἔστιν ",
                "285": "δὲ τὸ ἐπίθυμα λύκου ὀφθαλμός, στύραξ, κιννάμωμον, ",
                "286": "βδέλλα καὶ ὅτι ἔντιμον ἐν τοῖς ἀρώμασι, καὶ σπονδὴν τέλε-",
                "287": "σον ἀπὸ οἴνου καὶ μέλ[ι]τος καὶ γάλακτος καὶ ὀμβρίου ὕδατος <καὶ ",
                "288": "ποί>ει πλακοῦντας ζʹ καὶ πόπανα ζʹ. ταῦτα μέλλεις ὅλα ποιῆσαι ",
                "289": "[ἐγ]γὺ̣σ̣ τοῦ λύχνου, ἐστολισμένος καὶ ἀπεχόμενος ἀπὸ ",
                "290": "πάντων μυσαρῶν πραγμάτων καὶ πάσης ἰχθυοφαγίας ",
                "291": "καὶ πάσης συνουσίας, ὅπως ἂν εἰς μεγίστην ἐπιθυμίαν ἀγά-",
                "292": "γῃς τὸν θεὸν εἰς σέ. ἔστιν δὲ τὰ ὀνόματα, <ἃ> μέλλεις γράψαι ",
                "293": "εἰς τὸ βύσσινον ῥάκος καὶ ἐλλυχνιάσεις εἰς τὸν ἀμίλτωτον λύχνον· ",
                "294": "‘αβεραμενθωουλερθεξ αναξ εθρενλυοω θνεμα ραιβαι· ",
                "295": "αεμινναε βαρωθερ ρεθωβαβ εανιμεα.’ ὅταν τελέσῃς πάν-",
                "296": "τα τὰ προειρημένα, κάλει τῇ ἐπαοιδῇ· ‘Ἄναξ Ἀπόλλων, ἐλθὲ ",
                "297": "σὺν Παιήονι, χρημάτισόν μοι, περὶ ὧν ἀξιῶ, κύριε. δέσποτα, ",
                "298": "λίπε Παρνάσιον ὄρος καὶ Δελφίδα Πυθὼ ",
                "299": "ἡμετέρων ἱερῶν στομάτων ἄφθεγκτα λαλούντων, ",
                "300": "ἄγγελε πρῶτε <θε>οῦ, Ζηνὸς μεγάλοιο, Ἰάω, καὶ σὲ τὸν οὐράνι-",
                "301": "ον κόσμον κατέχοντα, Μιχαήλ, καὶ σὲ καλῶ, Γαβριὴλ πρω-",
                "302": "τάγγελε· δεῦρ' ἀπ' Ὀλύμπου, Ἀβρασάξ, ἀντολίῃς κεχαρη-",
                "303": "μένος, ἵλαος ἔλθοις, ὃς δύσιν ἀντολίηθεν ἐπισκοπιάζει[ς, Ἀ]δωναί· ",
                "304": "πᾶσα φύσις τρομ[έ]ει σε, πάτερ κό[ς]μοιο, Πακερβηθ. ",
                "305": "ὁρκίζω κεφαλήν τε θεοῦ, ὅπερ ἐστὶν Ὄλυμπος, ",
                "306": "ὁρκίζω σφραγῖδα θεοῦ, ὅπερ ἐστὶν ὅρασις, ",
                "307": "ὁρκίζω χέρα δεξιτερήν, ἣν κόσμῳ ἐπέσχες, ",
                "308": "ὁρκίζω κρητῆρα θεοῦ πλοῦτον κατέχοντα, ",
                "309": "ὁρκίζω θεὸν αἰώνιον Αἰῶνά τε πάντων, ",
                "310": "ὁρκίζω Φύσιν αὐτοφυῆ, κράτιστον Ἀδωναῖον, ",
                "311": "ὁρκίζω δύνοντα καὶ ἀντέλλοντα Ἐλωαῖον, ",
                "312": "ὁρκίζω τὰ ἅγια καὶ θεῖα ὀνόματα ταῦτα, ὅπως ",
                "313": "ἂν πέμψωσί μοι τὸ θεῖον πνεῦμα καὶ τελέσῃ, ",
                "314": "ἃ ἔχω κατὰ φρένα καὶ κατὰ θυμόν. ",
                "315": "κλῦθι, μάκαρ, κλῄζω σε, τὸν οὐρανοῦ ἡγεμονῆα ",
                "316": "καὶ γαίης, χάεός τε καὶ Ἄϊδος, ἔνθα νέμονται ...   ",
                "317": "πέμψον δαίμονα τοῦτον ἐμαῖς ἱεραῖς ἐπαοιδαῖς ",
                "318": "νυκτὸς ἐλαυνόμενον προστάγμασιν σῆς ὑπ' ἀνάγκης, ",
                "319": "οὗπερ ἀπὸ σκήνους ἐστὶ τόδε, καὶ φρασάτω μοι, ",
                "320": "ὅσσα θέλω γνώμῃσιν, ἀληθείην καταλέξας, ",
                "321": "πρηΰν, μειλίχιον μηδ' ἀντία μοι φρονέοντα. ",
                "322": "μηδὲ σὺ μηνίσῃς ἐπ' ἐμαῖς ἱεραῖς ἐπαοιδαῖς, ",
                "323": "ἀλλὰ φύλαξον ἅπαν δέμας ἄρτιον ἐς φάος ἐλθεῖν· ",
                "324": "ταῦτα γὰρ αὐτὸς ἔταξας ἐν ἀνθρώποισι δαῆναι. ",
                "325": "κλῄζω δ' οὔνομα σὸν Μοίραις αὐταῖς ἰσάριθμον· ",
                "326": "αχαϊφω θωθω αϊη ϊαηϊα αϊη αϊη ϊαω ",
                "327": "θωθω φιαχα.’ καὶ ὅταν εἰσέλθῃ, ἐρώτα αὐτόν, ",
                "328": "περὶ οὗ θέλεις, περὶ μαντείας, περὶ ἐποποιίας, ",
                "329": "περὶ ὀνειροπομπείας, περὶ ὀνειραιτησίας, περὶ ",
                "330": "ὀνειροκριτίας, περὶ κατακλίσεως, περὶ πάντων, ",
                "331": "ὅ[ς]ων ἐστὶν ἐν τῇ μαγικῇ ἐμπει[ρίᾳ]. ",
                "332": "στρῶσον δὲ θρόνον καὶ κλ[ι]ντήριο[ν δ]ιὰ βυσσίνω[ν], ",
                "333": "σὺ δὲ στάθητι θύων διὰ τοῦ προειρημένου ἐπι-",
                "334": "θ[ύ]ματος. καὶ μετὰ τὴν ἐξ[έ]τασιν ἐὰν θέλῃς ",
                "335": "ἀπολῦσαι αὐτὸν τὸν θεόν, τὴν προειρημένην ",
                "336": "ἐ[β]εννίνην ῥάβδον, ἣν ἔχεις χειρὶ ἐν τῇ ",
                "337": "λαιᾷ, μετένεγκον εἰς τὴν δεξιὰν καὶ τὸν κλῶν-",
                "338": "α τῆς δάφνης, ὃν ἔχεις ἐν τῇ δεξιᾷ χειρί, ",
                "339": "μετένεγκον εἰς τὴν ἀριστεράν, καὶ σβέσον ",
                "340": "τὸν καιόμενον λύχνον καὶ χρῶ τοῦ αὐτοῦ ",
                "341": "ἐπιθύματος λέγων ὅτι· ‘ἵλαθί μοι, προπάτωρ, ",
                "342": "προγενέστερε, αὐτογένεθλε· ὁρκίζω τὸ πῦρ ",
                "343": "τὸ φανὲν πρῶτον ἐν ἀβύσσῳ, ",
                "344": "ὁρκίζω τὴν σὴν δύναμιν, τὴν πᾶσι μεγίστην, ",
                "345": "ὁρκίζω τὸν φθείροντα μέχρις Ἄϊδος εἴσω, ",
                "346": "ἵνα ἀπέλθῃς εἰς τὰ ἴδια πρυμνήσια καὶ μή ",
                "347": "με βλάψῃς, ἀλλ' εὐμενὴς γενοῦ διὰ παντός.’"
            }
        }
    ]
}
